%YAML 1.1
%TAG !u! tag:unity3d.com,2011:
--- !u!114 &11400000
MonoBehaviour:
  m_ObjectHideFlags: 0
  m_CorrespondingSourceObject: {fileID: 0}
  m_PrefabInstance: {fileID: 0}
  m_PrefabAsset: {fileID: 0}
  m_GameObject: {fileID: 0}
  m_Enabled: 1
  m_EditorHideFlags: 0
  m_Script: {fileID: 11500000, guid: 574b795305980474fa167758d47caa4d, type: 3}
  m_Name: Player Inventory
  m_EditorClassIdentifier: 
  Container:
  - item: {fileID: 11400000, guid: dffa6f74375a84849a248ac8431ab55f, type: 2}
    amount: 1
    name: TESTkey
    mesh: {fileID: 0}
  - item: {fileID: 11400000, guid: 87007e22ff9e5a545a66c82ef3ea4f3f, type: 2}
    amount: 1
    name: duck
    mesh: {fileID: 0}
